{
  "project_info": {
    "project_number": "549296086827",
    "firebase_url": "https://trabalhei-6f456.firebaseio.com",
    "project_id": "trabalhei-6f456",
    "storage_bucket": "trabalhei-6f456.appspot.com"
  },
  "client": [
    {
      "client_info": {
        "mobilesdk_app_id": "1:549296086827:android:f4b8c72c47d07eba",
        "android_client_info": {
          "package_name": "br.com.trabalhei"
        }
      },
      "oauth_client": [
        {
          "client_id": "549296086827-jbh78rijjmgml22t61mf6qp09hqssgo2.apps.googleusercontent.com",
          "client_type": 1,
          "android_info": {
            "package_name": "br.com.trabalhei",
            "certificate_hash": "D56E76B489F5D459A2072DE3993A6365585279D8"
          }
        },
        {
          "client_id": "549296086827-mpg7np4l8d515etvgi5n742subfq71lq.apps.googleusercontent.com",
          "client_type": 3
        }
      ],
      "api_key": [
        {
          "current_key": "AIzaSyBwuuGTwWDjumCYSNiXsMlfBEqPBbyrF2Y"
        }
      ],
      "services": {
        "analytics_service": {
          "status": 1
        },
        "appinvite_service": {
          "status": 2,
          "other_platform_oauth_client": [
            {
              "client_id": "549296086827-mpg7np4l8d515etvgi5n742subfq71lq.apps.googleusercontent.com",
              "client_type": 3
            }
          ]
        },
        "ads_service": {
          "status": 2
        }
      }
    }
  ],
  "configuration_version": "1"
}